<?xml version="1.0" standalone="no"?>
<!DOCTYPE svg PUBLIC "-//W3C//DTD SVG 20010904//EN"
 "http://www.w3.org/TR/2001/REC-SVG-20010904/DTD/svg10.dtd">
<svg version="1.0" xmlns="http://www.w3.org/2000/svg"
 width="2407.000000pt" height="2407.000000pt" viewBox="0 0 2407.000000 2407.000000"
 preserveAspectRatio="xMidYMid meet">
<metadata>
Created by potrace 1.11, written by Peter Selinger 2001-2013
</metadata>
<g transform="translate(0.000000,2407.000000) scale(0.100000,-0.100000)"
fill="#000000" stroke="none">
<path d="M9045 24029 c-55 -22 -147 -58 -205 -81 -58 -22 -123 -49 -145 -58
-22 -10 -125 -56 -230 -101 -318 -139 -853 -415 -1157 -598 -402 -241 -778
-500 -1143 -786 -77 -60 -151 -120 -165 -131 -14 -12 -74 -63 -135 -114 -213
-179 -437 -388 -677 -630 -239 -241 -288 -292 -418 -440 -36 -40 -70 -78 -75
-84 -6 -6 -59 -69 -118 -141 -60 -71 -125 -150 -145 -175 -21 -25 -69 -85
-107 -135 -39 -49 -73 -94 -78 -100 -4 -5 -21 -28 -37 -50 -16 -22 -33 -45
-38 -50 -14 -18 -215 -301 -274 -387 -196 -286 -461 -730 -626 -1048 -30 -58
-57 -109 -61 -115 -4 -5 -20 -39 -36 -75 -16 -36 -34 -72 -40 -80 -6 -8 -28
-53 -49 -100 -21 -47 -51 -112 -66 -145 -32 -67 -58 -126 -90 -200 -12 -27
-27 -63 -35 -80 -71 -159 -219 -550 -303 -800 -78 -231 -209 -677 -237 -805
-2 -8 -12 -53 -23 -100 -49 -200 -99 -433 -122 -565 -5 -33 -12 -71 -15 -85
-6 -30 -34 -200 -41 -250 -3 -19 -7 -46 -9 -60 -3 -14 -7 -42 -10 -63 -3 -20
-7 -52 -9 -70 -3 -17 -8 -54 -11 -82 -3 -27 -10 -84 -15 -125 -9 -70 -16 -138
-24 -235 -2 -22 -6 -71 -10 -110 -26 -293 -31 -431 -31 -875 0 -385 5 -597 20
-780 7 -87 22 -261 30 -330 3 -25 7 -67 10 -95 6 -59 15 -140 20 -175 2 -14 9
-63 15 -110 6 -47 17 -123 25 -170 8 -47 16 -103 20 -125 6 -46 51 -288 65
-355 68 -321 137 -611 180 -755 12 -38 23 -79 25 -89 30 -136 278 -868 350
-1031 7 -16 38 -91 68 -165 30 -74 71 -170 91 -213 20 -42 36 -79 36 -81 0
-11 241 -506 290 -594 5 -9 46 -84 91 -167 79 -147 170 -305 214 -375 12 -19
41 -66 65 -105 74 -120 289 -451 313 -480 4 -5 58 -80 119 -165 129 -181 407
-541 448 -580 3 -3 39 -45 80 -95 156 -187 352 -399 604 -650 262 -261 318
-314 456 -435 41 -36 77 -67 80 -70 13 -13 212 -181 266 -225 34 -28 80 -65
103 -84 190 -154 522 -394 776 -563 171 -113 636 -398 650 -398 3 0 22 -10 43
-23 179 -112 709 -372 1052 -516 107 -45 204 -86 215 -91 11 -5 38 -16 60 -24
22 -8 138 -50 258 -95 378 -140 960 -313 1257 -375 14 -3 57 -12 95 -21 139
-31 449 -91 560 -109 17 -3 73 -12 125 -20 52 -9 115 -18 140 -21 25 -4 56 -8
70 -10 14 -2 48 -6 75 -9 28 -3 66 -8 85 -11 52 -7 107 -13 185 -20 39 -3 81
-7 95 -10 14 -2 63 -7 110 -10 47 -4 101 -8 120 -10 33 -3 239 -15 340 -20 25
-1 48 -3 53 -4 4 0 7 -343 7 -761 0 -601 -3 -760 -12 -761 -7 0 -22 -2 -33 -4
-11 -1 -74 -8 -140 -15 -129 -13 -134 -13 -240 -25 -38 -4 -86 -9 -106 -10
-46 -4 -154 -15 -199 -20 -19 -2 -64 -7 -100 -10 -36 -4 -83 -8 -105 -11 -72
-8 -128 -13 -235 -24 -182 -18 -204 -20 -255 -26 -27 -3 -66 -7 -85 -9 -19 -2
-64 -7 -100 -10 -36 -3 -76 -8 -90 -10 -14 -2 -62 -7 -107 -10 -45 -3 -91 -8
-102 -10 -11 -2 -55 -6 -98 -10 -42 -3 -91 -8 -108 -10 -48 -6 -115 -14 -180
-20 -33 -3 -80 -7 -105 -10 -25 -3 -70 -7 -100 -10 -30 -3 -71 -8 -90 -10 -19
-2 -64 -7 -100 -10 -36 -3 -81 -8 -100 -10 -19 -2 -64 -7 -100 -10 -36 -3 -76
-8 -90 -10 -14 -2 -59 -7 -100 -11 -41 -4 -88 -8 -105 -10 -16 -1 -57 -5 -90
-8 -134 -13 -174 -17 -192 -20 -10 -2 -54 -7 -98 -10 -44 -4 -91 -9 -105 -11
-14 -2 -54 -7 -90 -10 -36 -3 -87 -8 -115 -11 -27 -3 -68 -7 -90 -9 -48 -4
-135 -14 -192 -21 -24 -3 -43 -11 -44 -17 -1 -15 -1 -990 0 -1039 l1 -38 4985
0 4985 0 1 23 c5 122 0 1059 -5 1064 -4 4 -17 8 -29 9 -47 2 -186 15 -208 19
-13 2 -53 6 -89 9 -89 8 -169 16 -205 21 -16 2 -59 7 -95 10 -36 3 -79 8 -97
10 -18 3 -63 7 -100 10 -37 3 -84 8 -103 10 -19 2 -62 7 -95 10 -33 3 -76 8
-95 10 -19 3 -84 9 -145 15 -60 6 -128 13 -150 15 -73 8 -249 27 -290 30 -47
4 -147 14 -190 20 -16 2 -66 7 -110 10 -44 4 -87 8 -95 10 -8 2 -53 6 -100 10
-47 4 -92 9 -101 10 -8 2 -53 6 -100 10 -46 4 -92 9 -102 11 -10 2 -48 6 -85
9 -37 3 -83 8 -102 10 -39 5 -104 12 -290 30 -30 3 -73 7 -95 10 -22 2 -69 7
-105 10 -36 3 -76 8 -90 10 -22 3 -54 6 -200 20 -14 1 -59 6 -100 9 -41 4 -86
9 -100 11 -14 2 -54 6 -90 10 -36 3 -81 8 -100 10 -19 2 -60 7 -90 10 -55 5
-138 14 -195 20 -16 1 -33 3 -36 4 -9 2 -11 1581 -2 1583 4 0 19 2 33 3 14 2
44 5 68 9 23 3 61 8 85 11 23 3 53 8 67 10 14 2 45 7 70 10 25 3 54 7 66 9 12
2 45 7 75 11 30 4 56 8 59 10 3 2 28 6 55 9 28 4 57 9 65 11 8 2 31 6 50 9 46
7 69 12 240 46 442 88 847 196 1315 352 190 63 255 88 255 98 0 5 -239 667
-262 723 -7 19 -16 27 -27 24 -9 -3 -74 -26 -146 -51 -71 -26 -173 -60 -225
-75 -52 -16 -147 -45 -210 -64 -116 -36 -473 -132 -520 -141 -14 -2 -47 -10
-75 -16 -27 -6 -60 -14 -73 -16 -12 -2 -59 -13 -105 -24 -45 -10 -95 -21 -112
-24 -62 -10 -261 -46 -285 -51 -63 -13 -459 -69 -570 -80 -30 -3 -71 -8 -90
-10 -51 -6 -144 -14 -235 -20 -44 -3 -100 -7 -125 -10 -236 -23 -1067 -24
-1290 0 -19 2 -78 6 -130 10 -52 3 -111 8 -130 10 -33 4 -67 8 -181 19 -56 6
-215 25 -249 31 -24 4 -56 8 -152 21 -24 3 -50 7 -58 9 -8 2 -34 7 -58 10 -24
3 -78 12 -120 20 -42 8 -90 17 -107 20 -16 3 -64 12 -105 20 -41 8 -89 17
-107 20 -17 3 -58 12 -90 20 -32 8 -69 16 -83 19 -36 6 -369 90 -480 121 -428
119 -914 293 -1345 482 -264 116 -770 369 -877 439 -21 13 -40 24 -43 24 -9 0
-394 232 -496 300 -51 33 -94 60 -96 60 -2 0 -27 17 -56 38 -29 21 -113 81
-187 132 -133 93 -340 245 -370 272 -8 8 -58 47 -110 88 -52 41 -97 77 -100
80 -3 3 -45 39 -95 80 -194 161 -381 335 -635 589 -146 146 -286 289 -311 316
-86 95 -311 360 -391 460 -44 55 -89 111 -100 123 -11 13 -67 88 -124 165 -58
78 -111 149 -117 157 -19 25 -126 180 -187 270 -102 151 -308 484 -375 604
-200 361 -357 674 -470 936 -37 85 -73 169 -80 185 -55 124 -169 427 -236 629
-28 83 -55 160 -59 171 -10 24 -86 277 -107 355 -8 30 -16 62 -19 70 -4 16
-21 80 -52 200 -10 41 -27 111 -37 155 -9 44 -21 94 -26 110 -4 17 -11 44 -13
60 -3 17 -17 84 -30 150 -14 66 -27 134 -30 150 -14 77 -36 204 -40 231 -2 16
-11 79 -20 139 -22 154 -24 163 -32 230 -3 33 -8 67 -9 76 -2 9 -6 52 -10 95
-4 43 -8 89 -10 101 -2 12 -6 59 -10 105 -3 46 -8 106 -10 133 -27 351 -27
1138 0 1410 2 22 7 81 10 130 3 50 8 101 10 115 2 14 7 58 10 98 4 41 8 81 10
90 1 9 6 44 9 77 3 33 9 78 12 100 3 22 7 51 9 65 2 14 6 45 10 70 4 25 9 59
11 75 2 17 6 41 9 55 3 14 7 39 9 55 5 32 13 75 21 124 12 68 75 381 89 441 8
36 23 97 32 135 9 39 18 77 19 85 2 8 4 15 5 15 1 0 3 7 5 15 2 8 6 26 9 40 6
28 85 314 111 400 103 347 291 853 435 1175 179 401 395 815 598 1150 122 201
416 643 479 720 4 6 41 55 82 110 41 55 77 102 80 105 3 3 28 34 56 70 27 36
54 70 60 77 5 6 44 53 85 104 67 84 238 279 375 429 85 93 495 501 595 591
118 108 240 213 350 304 47 38 87 72 90 75 19 22 427 330 549 415 220 153 794
515 817 515 2 0 21 10 42 23 155 97 636 334 937 461 88 38 179 77 202 87 24
11 46 19 49 19 3 0 20 6 37 14 27 12 116 46 230 88 20 8 26 16 22 27 -4 9 -63
171 -132 361 -130 358 -139 381 -151 379 -4 0 -52 -18 -107 -40z"/>
<path d="M12737 22994 c-1 -1 -92 -5 -202 -9 -110 -3 -216 -8 -235 -10 -19 -2
-84 -6 -145 -10 -60 -4 -117 -8 -125 -10 -8 -1 -51 -6 -94 -10 -43 -4 -88 -9
-100 -11 -12 -2 -46 -6 -77 -9 -31 -3 -65 -7 -76 -9 -11 -3 -44 -7 -74 -11
-30 -3 -79 -10 -109 -15 -30 -5 -73 -12 -95 -15 -22 -3 -49 -8 -61 -10 -12 -3
-39 -7 -60 -10 -21 -3 -45 -8 -53 -11 -8 -2 -30 -7 -50 -10 -32 -5 -213 -40
-251 -49 -8 -2 -58 -13 -110 -25 -73 -16 -259 -63 -373 -93 -4 -1 77 -35 180
-76 571 -225 1280 -556 1778 -830 33 -18 85 -47 115 -64 30 -16 84 -46 120
-67 36 -20 85 -48 110 -62 58 -32 427 -253 505 -303 135 -85 195 -124 314
-202 70 -45 135 -89 146 -97 11 -8 71 -49 133 -91 l113 -76 172 66 c95 37 289
112 432 167 143 55 269 104 280 108 21 10 441 173 1225 475 267 102 494 190
505 195 30 14 356 140 360 140 2 0 25 9 50 20 l47 20 -98 49 c-386 192 -758
346 -1164 482 -129 43 -260 85 -290 93 -30 9 -86 25 -125 36 -179 53 -601 155
-685 166 -19 2 -43 7 -52 10 -17 5 -23 6 -98 20 -25 4 -47 8 -50 9 -3 1 -30 5
-60 10 -30 5 -57 9 -60 10 -3 1 -30 5 -60 9 -30 5 -62 10 -70 11 -17 3 -95 14
-150 21 -19 2 -51 6 -70 9 -71 9 -117 14 -180 20 -36 4 -78 9 -95 11 -16 2
-75 6 -130 10 -55 3 -107 8 -116 9 -50 10 -734 27 -742 19z"/>
<path d="M9050 22158 c-66 -30 -483 -239 -495 -248 -5 -4 -50 -29 -100 -55
-49 -26 -102 -56 -117 -66 -14 -11 -29 -19 -32 -19 -15 0 -425 -256 -584 -365
-225 -155 -589 -431 -749 -569 -361 -310 -668 -609 -918 -891 -44 -49 -82 -92
-86 -95 -8 -7 -249 -298 -290 -350 -518 -655 -964 -1417 -1284 -2195 -84 -205
-99 -245 -92 -245 2 0 77 29 168 64 90 35 214 82 274 105 102 39 127 49 180
72 11 5 72 29 135 53 63 24 205 78 315 121 110 43 227 88 260 100 124 47 1021
396 1040 405 11 5 133 52 270 105 482 185 590 228 601 239 6 6 21 49 34 96
186 688 375 1254 625 1872 78 192 104 253 161 383 9 22 18 42 19 45 37 107
504 1079 545 1135 4 6 33 60 65 120 31 61 69 129 82 153 14 24 24 44 22 46 -2
2 -24 -5 -49 -16z"/>
<path d="M10270 22033 c10 -26 51 -138 90 -248 39 -110 75 -209 80 -220 5 -11
53 -139 106 -285 92 -254 183 -504 246 -675 17 -44 47 -127 68 -185 74 -207
261 -714 264 -718 3 -3 224 80 301 113 17 7 57 23 90 35 33 13 74 29 90 35 17
7 95 38 175 68 80 31 388 151 685 267 297 116 545 212 550 214 15 4 47 17 80
31 17 7 59 23 94 36 l64 23 -34 28 c-18 15 -37 28 -40 28 -4 0 -36 19 -71 43
-114 78 -503 316 -668 409 -25 14 -74 42 -110 63 -250 144 -870 464 -1125 580
-33 15 -94 43 -135 62 -200 93 -730 317 -797 337 l-22 7 19 -48z"/>
<path d="M9653 21918 c-24 -30 -207 -380 -342 -653 -124 -249 -210 -434 -318
-680 -41 -93 -83 -189 -94 -212 -10 -24 -19 -45 -19 -48 0 -2 -11 -28 -24 -57
-31 -69 -202 -506 -265 -678 -46 -126 -250 -737 -304 -912 -13 -43 -20 -78
-16 -78 5 0 278 104 606 232 713 276 864 334 1088 421 94 36 233 90 310 120
77 30 173 67 213 82 39 16 72 30 72 31 0 4 -68 191 -81 222 -5 13 -39 105 -75
205 -36 100 -71 198 -79 217 -7 19 -32 87 -55 150 -23 63 -48 133 -57 155 -33
87 -397 1083 -413 1130 -23 67 -132 359 -135 363 -1 1 -7 -3 -12 -10z"/>
<path d="M17620 21655 c0 -3 6 -21 14 -39 l14 -33 -202 -78 c-110 -42 -253
-98 -316 -122 -63 -25 -277 -108 -475 -184 -198 -77 -369 -143 -380 -148 -11
-5 -58 -24 -105 -41 -47 -17 -94 -35 -105 -40 -11 -5 -92 -37 -180 -70 -88
-33 -169 -65 -180 -70 -24 -11 -514 -200 -519 -200 -2 0 -21 -8 -42 -17 -22
-9 -41 -17 -44 -18 -6 0 -239 -90 -285 -109 -16 -7 -87 -35 -157 -62 -71 -27
-128 -51 -128 -54 0 -3 22 -21 48 -40 26 -19 49 -37 52 -40 3 -3 30 -25 60
-50 64 -51 283 -233 290 -240 3 -3 43 -39 90 -80 396 -348 882 -851 1203
-1245 97 -119 180 -224 231 -290 33 -44 64 -84 69 -90 20 -25 196 -269 237
-329 25 -36 51 -66 58 -66 8 0 41 11 75 24 34 13 71 27 82 31 11 5 25 9 30 10
6 2 51 19 100 38 50 19 146 56 215 82 69 25 132 49 140 52 8 3 20 7 25 9 6 1
154 57 330 124 176 67 345 130 375 141 30 11 62 23 70 26 8 3 20 7 25 9 9 2
253 94 295 111 8 3 20 7 25 9 10 3 1387 520 1415 531 8 3 20 7 25 9 46 13 190
74 192 80 4 13 -261 361 -383 504 -89 104 -160 187 -169 196 -297 335 -704
730 -1015 985 -36 30 -71 60 -78 67 -8 7 -30 25 -50 40 -21 15 -39 29 -42 32
-7 9 -180 142 -206 160 -12 8 -91 65 -175 125 -219 157 -549 373 -549 360z"/>
<path d="M13670 20044 c-91 -35 -174 -68 -185 -73 -11 -5 -175 -69 -365 -141
-190 -73 -613 -236 -940 -362 -327 -127 -640 -247 -695 -268 -55 -21 -112 -44
-127 -50 l-26 -12 25 -67 c14 -36 31 -86 39 -111 8 -25 19 -54 24 -65 5 -11
25 -63 44 -115 175 -483 420 -1152 431 -1180 25 -64 125 -339 125 -346 0 -3 6
-20 14 -37 13 -28 90 -237 303 -825 31 -85 61 -156 67 -158 9 -3 608 214 726
263 8 3 17 7 20 8 3 1 12 4 20 8 8 3 202 75 430 160 228 86 640 239 915 343
275 103 534 199 575 214 131 48 564 210 585 219 11 5 101 39 200 76 99 36 187
69 195 72 8 4 17 7 20 8 29 7 180 69 180 74 0 11 -338 454 -395 518 -5 6 -26
30 -45 54 -38 46 -206 242 -255 298 -62 70 -81 90 -204 220 -185 197 -511 518
-631 621 -39 34 -152 134 -164 145 -6 6 -56 48 -111 94 -55 45 -111 93 -125
104 -14 12 -45 37 -70 56 -25 19 -47 37 -50 41 -3 3 -32 26 -65 51 -33 24 -62
47 -65 50 -13 15 -239 179 -247 178 -4 0 -82 -30 -173 -65z"/>
<path d="M10495 18813 c-148 -57 -373 -144 -500 -193 -491 -190 -741 -287
-760 -295 -11 -4 -24 -9 -30 -11 -5 -1 -39 -14 -75 -29 -36 -14 -249 -98 -475
-185 -225 -88 -448 -174 -495 -192 l-85 -34 -13 -49 c-19 -74 -89 -394 -96
-437 -3 -21 -10 -57 -15 -80 -5 -24 -12 -59 -15 -78 -3 -19 -7 -44 -10 -55 -2
-11 -7 -40 -11 -65 -4 -25 -9 -54 -11 -65 -7 -43 -24 -152 -29 -190 -3 -22 -7
-53 -10 -70 -3 -16 -7 -47 -10 -67 -3 -21 -7 -55 -10 -75 -3 -21 -8 -60 -11
-88 -2 -27 -6 -66 -9 -85 -7 -55 -14 -129 -20 -200 -3 -36 -8 -85 -10 -110
-40 -466 -47 -1019 -19 -1509 4 -69 7 -134 8 -143 0 -10 1 -18 2 -18 3 0 231
85 329 122 44 17 107 41 140 54 33 13 152 57 265 99 113 41 214 80 225 85 11
5 443 167 960 360 517 194 978 367 1025 385 86 33 252 95 390 146 41 15 104
39 140 52 36 14 175 66 310 117 135 50 249 95 253 99 4 4 3 19 -2 32 -11 26
-36 93 -240 654 -73 198 -134 367 -138 375 -3 8 -7 20 -8 25 -2 6 -14 39 -28
75 -14 36 -47 124 -72 195 -26 72 -77 209 -112 305 -36 96 -76 207 -90 245
-13 39 -28 79 -33 90 -5 11 -36 94 -69 185 -72 198 -251 688 -260 712 -5 14
-44 1 -276 -89z"/>
<path d="M20210 18509 c-234 -88 -434 -164 -445 -169 -11 -5 -47 -18 -80 -31
-33 -12 -87 -32 -120 -44 -33 -12 -103 -38 -155 -57 -52 -20 -522 -196 -1045
-393 -972 -365 -1088 -409 -1140 -427 -41 -15 -40 -13 -15 -55 134 -225 331
-622 467 -943 111 -262 243 -630 314 -880 38 -132 80 -280 85 -300 2 -8 19
-82 39 -165 32 -135 70 -309 81 -375 3 -14 9 -47 14 -75 5 -27 13 -68 16 -90
3 -22 8 -43 10 -46 3 -5 245 82 309 111 11 5 238 93 505 195 267 102 494 190
505 195 11 5 117 45 235 90 118 44 235 89 260 100 25 10 241 94 480 186 239
92 514 197 610 234 96 37 283 109 415 159 132 51 243 95 247 99 4 4 -2 46 -13
92 -11 47 -22 92 -24 101 -40 188 -188 671 -297 969 -136 371 -357 863 -520
1160 -17 30 -44 80 -61 110 -17 30 -39 71 -50 90 -47 86 -191 320 -196 319 -4
0 -197 -72 -431 -160z"/>
<path d="M7250 17558 c-69 -28 -134 -54 -145 -59 -24 -10 -140 -55 -830 -322
-967 -374 -1230 -476 -1270 -492 -11 -4 -24 -9 -30 -11 -5 -1 -172 -66 -370
-144 -198 -77 -364 -142 -370 -144 -5 -2 -21 -8 -35 -13 -14 -6 -52 -20 -86
-32 l-61 -23 -26 -91 c-30 -109 -103 -407 -112 -457 -3 -19 -10 -51 -15 -70
-5 -19 -11 -51 -14 -71 -3 -20 -8 -42 -10 -50 -3 -8 -7 -30 -10 -49 -3 -19
-12 -71 -20 -115 -8 -44 -18 -98 -21 -120 -3 -23 -8 -52 -10 -65 -3 -14 -8
-45 -11 -70 -3 -25 -7 -52 -9 -60 -1 -8 -6 -44 -10 -80 -4 -36 -9 -73 -10 -82
-2 -9 -7 -48 -10 -85 -4 -37 -8 -79 -10 -93 -2 -14 -7 -56 -10 -95 -3 -38 -8
-90 -10 -115 -4 -40 -11 -158 -21 -330 -10 -183 -4 -729 10 -920 7 -88 17
-224 21 -260 1 -14 3 -35 3 -48 2 -18 5 -21 20 -13 9 5 80 32 157 60 77 29
156 58 175 66 19 8 139 53 265 100 127 47 237 89 245 92 8 3 20 7 25 9 17 5
869 325 890 334 11 5 376 142 810 305 435 162 799 299 810 304 11 5 28 12 38
15 16 5 18 14 13 59 -3 28 -8 88 -11 132 -3 44 -8 103 -10 130 -29 316 -24
1122 10 1540 3 44 8 107 11 140 5 67 14 157 19 195 2 14 7 61 11 105 3 44 8
83 10 86 2 4 6 33 9 65 3 33 8 70 10 83 2 13 7 45 11 70 10 77 14 105 19 131
2 14 7 43 10 65 5 40 50 298 60 345 3 14 7 36 10 50 2 14 9 49 15 79 12 64 12
71 3 70 -5 -1 -64 -24 -133 -51z"/>
<path d="M16590 17151 c-8 -5 -229 -88 -490 -185 -488 -182 -498 -186 -540
-204 -14 -6 -446 -168 -960 -360 -514 -193 -1135 -425 -1380 -517 -245 -92
-481 -180 -524 -196 -44 -16 -81 -31 -83 -33 -3 -2 7 -35 20 -73 42 -118 587
-1606 602 -1643 8 -19 111 -299 229 -623 119 -323 219 -594 223 -601 7 -12 30
-6 123 30 63 25 120 47 125 48 6 2 19 7 30 11 11 5 229 89 485 187 256 98 474
182 485 187 24 11 88 35 95 37 3 0 14 4 25 9 24 10 328 127 1095 421 322 124
594 229 605 233 11 5 58 24 105 41 47 18 94 36 105 41 23 10 377 146 560 216
66 25 123 48 127 52 6 5 -1 80 -17 164 -3 15 -7 39 -10 55 -3 15 -8 42 -11 61
-3 18 -7 41 -9 50 -2 9 -13 63 -25 121 -12 58 -26 123 -32 145 -6 22 -12 50
-14 63 -40 217 -278 973 -364 1157 -5 11 -32 74 -60 140 -114 269 -281 604
-417 833 -24 41 -43 77 -43 80 -1 4 -11 19 -23 34 -15 19 -27 24 -37 19z"/>
<path d="M11905 15394 c-66 -25 -131 -50 -145 -56 -14 -6 -34 -14 -45 -19 -11
-4 -587 -220 -1280 -479 -693 -259 -1269 -475 -1280 -480 -11 -5 -307 -116
-658 -247 l-638 -238 5 -35 c3 -19 8 -51 11 -70 2 -19 7 -45 9 -56 2 -12 7
-38 10 -59 9 -57 44 -225 78 -370 16 -71 31 -140 34 -151 24 -119 224 -757
268 -859 8 -16 19 -46 27 -65 51 -138 263 -609 333 -740 127 -238 143 -266
222 -401 37 -63 77 -130 88 -150 l21 -36 280 108 c154 60 280 109 280 109 0 1
7 3 15 5 12 3 1150 439 1225 470 11 4 25 9 30 11 6 2 377 144 825 317 448 173
929 358 1068 411 139 53 263 101 275 106 21 8 57 21 67 25 10 3 66 26 82 33
17 7 13 21 -184 552 -28 74 -77 209 -110 300 -33 91 -73 199 -88 240 -24 66
-73 200 -185 505 -18 50 -74 203 -124 340 -50 138 -94 257 -98 265 -3 8 -18
47 -32 87 -170 469 -248 673 -256 672 -5 0 -64 -21 -130 -45z"/>
<path d="M21440 15046 c-261 -101 -722 -279 -1025 -396 -302 -117 -617 -238
-700 -270 -299 -114 -503 -193 -650 -250 -82 -32 -204 -79 -270 -105 -66 -25
-129 -50 -140 -55 -11 -5 -90 -35 -175 -67 l-155 -59 1 -55 c0 -30 3 -94 7
-144 4 -49 10 -128 13 -175 32 -436 35 -1046 9 -1510 -12 -224 -16 -267 -30
-422 -15 -169 -16 -179 -30 -293 -3 -27 -8 -68 -10 -90 -2 -22 -8 -71 -14
-110 -5 -38 -12 -92 -15 -120 -4 -27 -8 -59 -10 -70 -14 -77 -38 -256 -34
-260 3 -4 398 140 453 165 11 5 479 180 1040 390 561 209 1036 387 1055 395
31 13 202 77 860 322 113 42 208 81 211 86 6 8 26 100 44 202 19 109 55 327
60 365 3 25 8 52 10 60 2 8 7 44 10 80 3 36 8 72 10 80 2 8 7 49 11 90 4 41 8
82 9 90 1 8 5 56 9 105 4 50 9 106 11 125 27 267 27 1135 0 1350 -2 14 -6 63
-10 110 -3 47 -8 96 -10 110 -2 14 -7 54 -10 90 -4 36 -8 76 -10 90 -12 84
-15 109 -20 145 -13 105 -24 177 -27 180 -2 2 -217 -79 -478 -179z"/>
<path d="M6970 13543 c-168 -63 -314 -118 -325 -123 -11 -5 -184 -70 -385
-145 -201 -75 -381 -142 -400 -150 -43 -17 -257 -97 -360 -134 -144 -52 -1665
-624 -1669 -627 -7 -6 12 -120 55 -334 32 -156 29 -143 48 -221 8 -37 17 -78
20 -90 3 -13 15 -62 26 -109 12 -47 23 -92 25 -100 111 -445 346 -1096 552
-1530 60 -126 209 -421 252 -500 23 -41 52 -94 63 -117 12 -24 27 -43 33 -43
5 0 51 16 100 36 90 35 196 76 310 118 33 13 179 69 325 126 146 56 292 112
325 125 33 12 159 60 280 107 121 47 375 145 565 218 190 72 354 135 365 140
22 10 874 339 890 344 11 3 7 2 161 62 61 24 115 44 121 44 5 0 17 6 28 14 17
12 15 17 -32 97 -120 200 -358 656 -425 814 -9 22 -35 83 -58 135 -160 364
-357 933 -415 1198 -2 9 -13 51 -24 92 -11 41 -22 86 -24 100 -3 14 -10 43
-15 65 -6 22 -13 51 -16 65 -2 14 -20 106 -40 205 -20 99 -37 190 -39 202 -2
12 -5 24 -8 26 -2 2 -141 -48 -309 -110z"/>
<path d="M17680 13590 c-25 -9 -54 -20 -65 -25 -21 -9 -667 -257 -800 -307
-44 -17 -93 -36 -110 -43 -16 -7 -52 -21 -80 -30 -27 -10 -56 -23 -62 -28 -7
-5 -13 -7 -13 -4 0 4 -21 -3 -47 -14 -46 -20 -733 -285 -1828 -706 -291 -112
-539 -207 -550 -212 -11 -5 -65 -26 -120 -47 -55 -20 -101 -38 -103 -39 -3 -3
59 -177 197 -555 62 -168 124 -336 138 -375 14 -38 31 -86 39 -105 7 -19 88
-240 179 -490 91 -250 169 -462 172 -470 3 -8 7 -17 8 -20 1 -3 4 -12 8 -20 3
-8 26 -71 51 -140 76 -213 217 -594 221 -598 2 -2 48 13 102 33 54 21 132 50
173 65 74 27 340 126 370 137 8 4 17 7 20 8 3 1 12 5 20 8 8 3 150 56 315 117
165 61 309 115 320 120 11 5 155 59 320 120 165 61 327 121 360 135 33 13 148
56 255 96 409 151 377 137 384 172 3 18 8 48 11 67 3 19 10 58 15 85 6 28 12
64 14 82 3 18 7 40 10 50 2 10 7 41 11 68 3 28 8 57 10 65 2 8 6 38 10 65 3
28 10 77 15 110 9 57 13 87 25 183 9 75 14 116 20 172 3 30 8 71 10 90 3 19 7
64 10 100 3 36 7 83 10 105 3 22 7 78 10 125 3 47 7 110 10 140 20 248 28
1099 13 1380 -8 142 -19 304 -22 326 -3 22 -9 22 -56 4z"/>
<path d="M13050 11809 c-157 -61 -301 -116 -320 -123 -19 -7 -96 -37 -170 -66
-189 -74 -207 -81 -370 -143 -80 -30 -372 -143 -650 -250 -278 -107 -671 -259
-875 -337 -203 -78 -379 -145 -390 -150 -22 -10 -37 -16 -580 -225 -209 -80
-380 -147 -382 -148 -5 -5 317 -423 413 -537 12 -14 64 -74 115 -135 52 -60
103 -121 114 -134 11 -13 43 -49 70 -79 28 -30 75 -82 105 -116 217 -240 577
-598 805 -801 50 -44 97 -87 105 -95 28 -29 240 -208 388 -328 l73 -59 152 57
c84 31 312 116 507 189 195 73 393 148 440 166 47 18 126 47 175 65 50 18 104
38 120 45 17 7 55 22 85 32 74 27 1354 506 1359 509 2 2 -1 16 -7 31 -6 15
-28 78 -50 138 -22 61 -173 477 -337 925 -448 1228 -454 1247 -496 1365 -22
61 -44 119 -49 130 -5 11 -22 57 -37 102 l-28 82 -285 -110z"/>
<path d="M21620 11225 c-19 -7 -134 -51 -255 -96 -121 -45 -242 -91 -270 -101
-27 -11 -62 -23 -76 -28 -27 -8 -285 -103 -325 -120 -12 -5 -235 -88 -495
-185 -261 -97 -501 -187 -534 -200 -33 -13 -220 -83 -415 -155 -195 -73 -425
-158 -510 -190 -182 -69 -472 -177 -515 -192 -147 -53 -146 -52 -167 -148 -30
-142 -58 -265 -110 -479 -61 -256 -60 -250 -102 -406 -19 -71 -42 -157 -51
-190 -47 -177 -208 -695 -287 -925 -22 -63 -44 -131 -50 -150 -41 -138 -350
-952 -423 -1115 -8 -16 -39 -91 -71 -165 -74 -177 -199 -458 -262 -590 -27
-58 -75 -158 -106 -224 -31 -65 -55 -120 -54 -121 7 -6 534 251 688 335 586
319 1220 764 1715 1204 155 138 194 176 400 381 294 295 417 433 721 808 69
86 306 410 360 492 21 33 41 62 44 65 14 13 176 267 280 440 183 304 384 701
532 1045 33 77 68 159 79 182 10 24 19 47 19 53 0 6 5 18 10 28 15 25 115 295
170 462 51 152 99 300 96 299 0 0 -17 -6 -36 -14z"/>
<path d="M8655 10109 c-38 -16 -365 -141 -725 -279 -360 -138 -664 -255 -675
-259 -11 -5 -56 -23 -100 -39 -44 -17 -110 -42 -146 -56 -36 -14 -137 -52
-225 -86 -87 -33 -166 -63 -174 -67 -8 -3 -19 -7 -25 -9 -5 -2 -57 -21 -115
-44 -58 -23 -121 -47 -140 -54 -112 -42 -339 -130 -365 -140 -16 -8 -189 -74
-382 -147 -194 -74 -353 -137 -353 -142 0 -6 64 -105 92 -142 4 -5 49 -68 100
-140 153 -216 439 -576 593 -745 290 -320 583 -611 815 -809 41 -36 80 -70 85
-76 6 -6 57 -49 115 -95 58 -47 107 -88 110 -91 6 -7 181 -143 196 -151 9 -6
59 10 244 80 30 11 136 50 235 87 99 36 187 68 195 72 8 3 20 7 25 9 6 1 129
47 275 102 146 55 371 138 500 186 129 48 244 91 255 95 11 5 115 43 230 86
116 42 219 80 230 85 30 13 588 220 605 225 17 4 652 240 688 255 21 9 19 13
-45 67 -81 68 -308 270 -413 368 -123 115 -498 493 -600 605 -52 57 -108 118
-125 135 -16 18 -55 61 -85 96 -30 35 -57 66 -60 69 -5 5 -94 110 -135 159
-11 13 -25 29 -30 35 -6 6 -62 76 -125 156 -63 80 -117 147 -120 150 -7 6
-218 290 -290 390 -29 41 -56 78 -59 81 -3 4 -37 -6 -76 -22z"/>
<path d="M17350 9625 c-19 -7 -71 -26 -115 -43 -359 -132 -553 -205 -570 -212
-24 -11 -1493 -560 -1517 -567 -10 -3 -18 -11 -18 -17 0 -10 277 -776 329
-911 24 -61 294 -803 328 -900 13 -38 28 -79 33 -90 5 -11 54 -146 110 -300
56 -154 105 -289 110 -300 9 -22 48 -131 77 -212 10 -29 20 -53 24 -53 3 0 27
48 54 108 65 146 89 198 115 257 206 458 485 1192 663 1740 86 264 235 757
252 834 2 9 16 59 30 111 15 52 28 102 30 110 5 25 106 423 111 443 6 20 1 20
-46 2z"/>
<path d="M13790 8295 c-709 -266 -780 -293 -805 -300 -14 -4 -225 -85 -250
-95 -11 -5 -119 -45 -240 -90 -189 -70 -304 -113 -403 -151 l-23 -9 28 -23
c73 -61 635 -448 785 -542 9 -5 61 -39 117 -75 159 -102 213 -135 472 -291
304 -182 341 -203 629 -362 371 -205 896 -467 1270 -634 80 -35 165 -73 190
-85 84 -38 93 -41 85 -21 -16 41 -336 909 -340 923 -2 8 -36 103 -75 210 -67
182 -92 251 -139 375 -11 28 -34 91 -51 140 -17 50 -38 104 -45 120 -7 17 -18
48 -25 70 -7 22 -18 54 -25 70 -8 17 -52 136 -99 265 -46 129 -124 341 -171
470 -48 129 -94 254 -102 278 -8 23 -18 42 -21 41 -4 0 -347 -128 -762 -284z"/>
<path d="M11360 7390 c-8 -4 -150 -58 -315 -120 -335 -124 -492 -184 -640
-240 -55 -21 -338 -126 -630 -235 -291 -108 -557 -207 -590 -220 -33 -13 -184
-69 -335 -125 -151 -56 -284 -105 -295 -110 -11 -5 -94 -36 -185 -70 -91 -33
-172 -63 -180 -67 -8 -3 -19 -7 -25 -9 -47 -15 -215 -80 -215 -84 0 -7 232
-149 400 -246 165 -94 612 -321 775 -393 66 -29 134 -59 150 -66 50 -22 296
-121 355 -143 30 -11 84 -32 120 -45 211 -81 727 -238 891 -272 9 -2 33 -8 55
-14 90 -25 463 -104 594 -126 189 -31 217 -36 259 -40 19 -3 48 -6 65 -9 17
-3 54 -8 81 -11 28 -4 61 -8 74 -10 13 -2 58 -7 100 -11 42 -3 83 -8 92 -9 8
-2 55 -6 105 -10 49 -4 100 -8 114 -11 158 -25 1026 -25 1315 1 28 2 82 7 120
10 39 3 88 7 110 9 124 12 176 17 192 20 10 2 45 7 78 10 81 9 291 39 355 51
14 3 41 7 60 11 19 3 60 10 90 15 30 6 69 12 85 15 25 5 319 68 365 79 97 23
323 80 390 99 l85 23 -30 15 c-17 9 -73 34 -127 57 -90 38 -251 111 -415 187
-40 19 -108 50 -150 70 -99 46 -597 295 -677 338 -34 19 -142 77 -241 131
-376 204 -907 518 -1127 667 -31 21 -60 38 -63 38 -3 0 -11 5 -18 11 -7 5 -82
56 -167 112 -146 96 -480 327 -593 410 -29 20 -63 45 -77 55 -21 14 -325 239
-355 263 -6 4 -17 4 -25 -1z"/>
</g>
</svg>
