<svg xmlns="http://www.w3.org/2000/svg" viewBox="0 0 222.63 214.79"><defs><style>.cls-1{fill:#1a1a18;}.cls-2{fill:none;stroke:#fff;stroke-width:6px;}.cls-3{fill:#fff;}</style></defs><title>logo_01</title><g id="Ebene_2" data-name="Ebene 2"><g id="Ebene_1-2" data-name="Ebene 1"><path class="cls-1" d="M134.57,174.7a84.14,84.14,0,1,0-95-71.62,84.14,84.14,0,0,0,95,71.62"/>
<path class="cls-2" d="M134.57,174.7a84.14,84.14,0,1,0-95-71.62A84.14,84.14,0,0,0,134.57,174.7Z"/>
<path class="cls-3" d="M189.13,43.61,158.49,55.1A98.18,98.18,0,0,0,137.66,33l27.85-10.79-.26-.69a82.41,82.41,0,0,1,23.88,22.09m-67.25-34A81.21,81.21,0,0,1,160,18.57l-27.4,10.61a144.55,144.55,0,0,0-31.37-16.63,81.57,81.57,0,0,1,20.69-2.92M89.26,16.87a152.47,152.47,0,0,0-11,24.82c-1.09,3.23-2,6.44-2.85,9.61L46.38,62.57a82.22,82.22,0,0,1,42.88-45.7M41.12,92.35a81.16,81.16,0,0,1,3.07-23.14L74,57.66a100.49,100.49,0,0,0-1.74,29.79L41.49,99c-.2-2.19-.34-4.4-.37-6.64m13.53,44,31.26-12a107.36,107.36,0,0,0,18.83,20.57L73.56,156.51a82.46,82.46,0,0,1-18.91-20.17m69.19,36.77a81.26,81.26,0,0,1-44.9-12.84l30.64-11.45a166.28,166.28,0,0,0,36.08,21,81.41,81.41,0,0,1-21.82,3.25m31.77-6.85a173.63,173.63,0,0,0,10.79-27.85c1.06-3.64,2.07-7.65,2.95-11.92l31.9-11.92a82.15,82.15,0,0,1-45.64,51.69m48-87.32a83,83,0,0,1,1,11.45,81.88,81.88,0,0,1-1.76,17.82L170.49,120.3a111.85,111.85,0,0,0,1-29ZM161.42,59.77,192.25,48.2a81.43,81.43,0,0,1,10.39,25.34L170.76,85.82a78.14,78.14,0,0,0-3.48-13.46,77.16,77.16,0,0,0-5.86-12.59m-5.16,1.94a70.16,70.16,0,0,1,5.94,12.47,73.69,73.69,0,0,1,3.41,13.63L130.2,101.45,120.54,75.1ZM131.6,35.34a96.79,96.79,0,0,1,21.64,21.73L118.68,70l-9.52-26ZM99.52,17.74a144.48,144.48,0,0,1,26.77,13.87L107.3,39ZM81.78,48.85A148.19,148.19,0,0,1,94.25,19.06l8,21.86Zm-1.7,6.45,24-9.31,9.51,25.94L77.51,85.48A97.87,97.87,0,0,1,80.08,55.3m2.86,64.35-31.18,12a81.28,81.28,0,0,1-9.59-27.17L73,92.93a75.66,75.66,0,0,0,3.32,12.89,78.21,78.21,0,0,0,6.6,13.83m5.13-2A72.75,72.75,0,0,1,81.42,104a71.72,71.72,0,0,1-3.26-13l37.32-14,9.68,26.39Zm22.61,25a106.29,106.29,0,0,1-19.53-20.36L127,108.46l9,24.7Zm37,22.16a166.31,166.31,0,0,1-31.95-18.27l22.21-8.3Zm-6.54-33.53-9.06-24.75,34.21-13.18a109.13,109.13,0,0,1-1.68,29.16Zm22.16-2.52a170.24,170.24,0,0,1-11.22,32.37L143,136.34ZM210,90.33a87.15,87.15,0,1,0-2.53,21.91l.33-.12-.18-.5A87.49,87.49,0,0,0,210,90.33"/><polygon class="cls-1" points="0 116.98 20.59 127.52 12.32 149.93 222.63 69.56 210.36 38.34 0 116.98"/><path class="cls-1" d="M133.6,201.26V187.1A96.79,96.79,0,0,0,156,181.84l-2.46-6.76a89.56,89.56,0,0,1-111.8-122A89,89,0,0,1,92.25,6.76L89.79,0A96.75,96.75,0,0,0,32,124a96.86,96.86,0,0,0,87.49,63.63v13.62l-37.51,3.83v9.7h89v-9.7Z"/><path class="cls-3" d="M169.61,75.5l.5.74-.1,1,.08.2.28.13.07.2-.13.27.21-.07-.18.76.15.4.58.94-.41.15-1.25-4.6Zm3.85-14.34.08.2-.81.3-.08-.2Zm-10.59,3.73q-2.42.9-2,1.92l.27.12.18,1.09.76.18,1.14-.66.2-.08.28.13L166.74,66l.23.6-3,1.14-.12.28-.08-.21-.93.58.07.21,2.91-.86,1.34-.73c.66,2.76.92,4.28.77,4.55l1,2.62c-.41.16-.41.77,0,1.85l.4-.15.08.2c.1.27-.05.48-.46.63l.08.2.4-.15.38,1-.53.43.93,1.26-.2.08-.28-.13a7.93,7.93,0,0,0,1.94,2.73l.21-.07.12-.28,1,.3.4-.15-.07-.2-1.62-3.08-.07-.2c-.1-.27.05-.48.45-.64l-.15-.4.2-.08.08.21.55,2.09c.74,1.26,1.27,1.84,1.57,1.72l.2-.07-1.59-2.4Q170.46,66.69,170.53,65l-.2.08,0-.68,1.34-.74c1.86-.69,2.82-1.43,2.86-2.22l-.63-.45.6-.23-.15-.4-.68,0Zm-5.2,13.35-.53,1.65-.2.08.53-1.65Zm-1.41-.69-.53,1.66-.2.08.53-1.66Zm2.2-1.55-.67,1.94-.2.08.67-2ZM150,70.16l-.12.29c.45-.16.92.07,1.41.7l-.16.79.08.21a3.21,3.21,0,0,0,2,1l2.42-.91,2-1-.12.28.08.22.28.14.57-1,.2-.07-1.85,5.56-.21.07,1.12-3.82-.08-.21c-.38.25-.82,1.55-1.32,3.89L156,76.2l-.45.66.28.13-.41,1.37c-.54.2-.73.51-.57.94l.21-.07.08.21-.13.29-.28-.14q-.33.12-.87,3.24l.31.85.57.27,0,1.94,1.61.61a16.86,16.86,0,0,1,4.8-3.25l.61-.22,1.77-.2-.15-.41-.29-.15,1.18.06.2-.07.25-.6-.32-.84-.21.08c-.8-.67-2.12-.91-4-.72l-1.15.68-1.21.46,4.32-12.56-.31-.84-.21.08-.24.58-.4.15-.08-.22.2-.07.12-.29L161,68l-.16-.43-5.62.41-4,1.72L150,70ZM145.2,84.63l.51.73-.11,1,.08.2.28.13.07.2-.12.28.2-.08-.18.76.15.41.58.93-.4.15L145,84.7Zm3.86-14.35.07.21-.81.3-.07-.2ZM138.47,74c-1.62.61-2.3,1.25-2.05,1.92l.28.13.17,1.08.76.18,1.14-.65.2-.08.28.13,3.08-1.62.23.61-3,1.13-.13.28-.07-.2-.94.58.08.2,2.9-.86,1.34-.73c.66,2.77.92,4.28.78,4.55l1,2.63c-.4.15-.4.77,0,1.84l.4-.15.08.2c.1.27,0,.48-.46.64l.08.2.4-.15.38,1-.53.43.93,1.26-.2.08-.27-.13a7.89,7.89,0,0,0,1.94,2.73l.2-.08.13-.27,1,.3.41-.15-.08-.2-1.61-3.09-.08-.2c-.1-.27.05-.48.46-.63l-.15-.4.2-.08.07.2.56,2.1c.74,1.26,1.26,1.83,1.56,1.72l.2-.08L148.53,88q-2.47-12.18-2.41-13.84l-.2.07,0-.68,1.35-.73q2.79-1.05,2.85-2.22l-.63-.46.61-.22-.15-.41-.69,0Zm-5,12.52-.06-.21-1.8.77.06.2.27.15,3.53-1.74-.05-.21-.21.08Zm-4.81,1.22.43,1.44-.21.06-.44-1.45ZM128.18,78l-.62.18-.15.27-.26-.13-.21,0-.15.27-.27-.15-.21.06.19.62.36,1.92.51,1,.13.41-.21.07-.27-.15.84,3.58.06.21.27.14-.1,1.15.21-.07.63,3.66.13.41.21-.06-.13-.42.21-.06.18.61.22-.06-.38-1.24-.2.07-.16.27-.1-1.1.42-.12.61,2.07.27.15c-.24.07-.28.45-.11,1.15l-.21.06-.31-1-.4.14.27.14.26,2.4.19.62v0c.1.28.51.37,1.21.27l.21-.07,8.89-4.89L140.1,90l-1.65.5-.07-.21c1.29-.39,2-.91,2.24-1.57l-.2-.61-.25-.15.41-.13-.14-.41-1.09.1A52.58,52.58,0,0,0,131,91.31l-.66-3,.21-.06.56,1.86.2-.07,0-2.94L131.1,87l2-.83c3.4-1.8,5.11-3.14,5.12-4l-.07-.21-1.5.22-.08-.21.42-.11-.06-.21-.26-.15L131.35,84l-.21.06-.61-2.75,4.52-2.25-.07-.2-.41.11-1.39.66-.2.06-.28-.16-1.18.58-1,.3-.13-.41,5.19-2.21c.76-.23,1.06-1,.9-2.3l-1.23-.32Zm-10.7,16.32.37,1-.2.08-.38-1Zm5.1-.52.07.2.53-.43-.15-.41-.12.28-.21.08.26-.56-.08-.2-.28-.13c.41-.15.56-.36.46-.63q-.41.15-.63-.45l-.2.07Zm-.23-2.45.21-.08-.31-.81-.2.08ZM121,80.1l-.13.28.25,1.29q2.94,12,2,12.35l-.4.15-.28-.13.08,2c-.32.12-.68-.21-1.06-1l-.23-.6L120.91,93a.57.57,0,0,1-.83-.38l-.41.15-.12.28.07.2.28.12.15.41-.4.15L119,92.8l-.81.3a2,2,0,0,1-1,1.06l0,1.37c.2-.08.66.75,1.38,2.47l.08.21-.61.22-.28-.12.23.6,1.64.08c.46,1.21,1.36,1.57,2.7,1.07l-.07-.21.28.13.93-.58.2-.08.28.13q1.8-1.36,1.65-1.77,2.13-.8-2.1-18.08l-.81.3.23.61-.61.23-.38-1Zm-9.42,17.11.51.73-.1,1,.07.2.28.13.07.2-.12.28.2-.08-.18.76.16.4.58.94-.41.15-1.26-4.6Zm3.86-14.35.07.2-.81.31-.07-.21Zm-10.59,3.73c-1.62.6-2.3,1.24-2,1.92l.28.12.18,1.09.75.18,1.14-.66.2-.07.28.12,3.08-1.61.23.61-3,1.13-.13.28-.07-.2-.94.58.08.2,2.9-.86,1.34-.73c.66,2.76.92,4.28.78,4.55l1,2.63c-.4.15-.4.76,0,1.84l.41-.15.07.2q.15.4-.45.63l.07.2.4-.15.38,1-.53.43.94,1.27-.21.07-.27-.12a8,8,0,0,0,1.94,2.73l.2-.08.13-.28,1,.31.41-.15-.08-.21-1.61-3.08-.08-.2c-.1-.27,0-.48.46-.63l-.15-.41.2-.07.07.2.56,2.1c.74,1.25,1.26,1.83,1.56,1.71l.2-.07-1.59-2.4q-2.48-12.18-2.41-13.85l-.2.08,0-.68,1.34-.73q2.79-1,2.85-2.22l-.63-.46.61-.23-.15-.4-.68,0Zm1.81,18.06.07.2-1-.31-.08-.2Zm-1.39-.64-1.11-.5-.08-.21c.3,0,.7.2,1.19.71m-9.32-4.58.3.81-.2.08-.3-.81Zm-.48-1.89.21-.08-.31-.81-.2.08Zm9-4.29.2-.08,0-.68-.41.15Zm-2.2-.33.08.2-.56,1.59-.2.08.48-1.79ZM95,95.64l.22.61.21-.08-.11-.88-.22-.61-.2.08Zm7.35-4.36.3.81-.12.28-.21.07-.17-1.09Zm-.83-.38.15.4c-.3,0-.69-.2-1.19-.71Zm-3.92,1.23,1.06-.85c1.8-.13,2.79,0,3,.5l.15.41a12.53,12.53,0,0,1-3.24,4.89l-.2.08Zm-5.15,1c.15.4.49.5,1,.3l.08.2c-.54.21-.76.44-.66.71l.2-.07,1.06-.86.41-.15.07.2c-.75.44-1.08.79-1,1.06l.07.2,1.22-.45.15.4.2-.07c-.2-.54-.17-.86.1-1L96,98.27l-.2.08-.31-.81-.2.07.91,6.12.3.8.45,1.94,1.34.85c.55,0,.73-.35.53-.89l.2-.07c.2.53.44.75.71.65l.61-.22-.16-.41c-.38-.23-.43-.58-.16-1a5.15,5.15,0,0,0-.72-2.54c-.54-1.64-.57-2.55-.1-2.72l1.77,1.64a21.7,21.7,0,0,0,8.16,4.55l.2-.07.12-.28.64.46.2-.08.78-1,.2-.08c-.13-.36-.67-.78-1.61-1.24l-.08-.2,1.32.43-.08-.2a4.21,4.21,0,0,0-2.22-1q-5.78-3.82-6.21-3.66l-.3-.81,1.06-.86a6,6,0,0,0,1.49-4l-.15-.41-1.34,2.58-.2.07,1-3.58-.45-1.22c-.71-1.89-2.58-2.58-5.61-2L95.39,90Zm-6,17,.08.2-1.24-.23-.07-.2ZM90.23,103l-.43,1.31-.2.08.43-1.32Zm-9.72,2.94.6,1.62-.2.08L80.3,106Zm11.62-5.26.08.2.1.88-.21.08-.15-.41,0-.68Zm-1.72-.28.43.53-.08,1.64-.6.23,0-2.33Zm-8.33,1.73-.16,1.44-.2.08.15-1.44Zm9.65-5,.4-.15-.37-1-.41.15ZM85.92,97l.08.2.2-.08.12-.27.21-.08c1.41-.34,2.18-.32,2.32,0l.61,1.62a9.67,9.67,0,0,1,.19,3.61c-.73,3.81-1.84,6-3.31,6.54l-.2.08a3.66,3.66,0,0,1-2.88-2.15q-.56-6.24,1.12-6.87l1-1.74-.28-.13-.07-.2.27.12Zm-4.24-.26.2-.08L83,95.34q-3,6.28-2.66,9.52l-.2.07-.08-.2a19.59,19.59,0,0,1,.77-5.35l-.08-.21q-1.67,5.4-1,7.08l.15.4.73,1.34-.13.28,1.27.91q2.69,3.36,7.5,1.57l.2-.07.93-.58a15,15,0,0,0,2.89-5.23L93,105c.32-3.25.34-5.25,0-6l-.3-.8c-.27.1-.28.48,0,1.16l-.2.07-2.27-4.22.2-.07.28.12.41-.15-1.27-.91-.07-.2.13-.28a8.26,8.26,0,0,0-5,.25q-3.66,1.92-3.31,2.85M73,117.2l.27.82-.2.07-.27-.82Zm-2.45-5.66.75,2.25-.21.08-.74-2.25Zm5-11.76.27.13.2-.08.14-.28.67,0,.06.21L73,101.65l-.2.08-.07-.21Zm-.21-2,1.21-.45.08.2-2.16,1-.61.23-.06-.21Zm-5.59,2.32-.81-.39-.6.23-.28.56-.27-.13-.2.08a1,1,0,0,1-.67,1.4c-.4.15-.4.84,0,2.07.13.41.46.52,1,.32l-.2.76c.1.27.48.28,1.16,0l.27.82.46,2.13-.2.08-.26-.14.34,1.72.27.13-.41.15c1.18,4,1.73,6.23,1.65,6.65l0,.06a.72.72,0,0,0,1,.46l.49,2.12,1.69-.4c.42-1.89.5-3.11.24-3.67l-.41-.54.21-.07-.41-.54-.06-.21.14-.28-.08-.2-.28-.13-.54-2.33q4.7-3,4.58-3.33l-.14-.41-1.41.53-.07-.2,1.22-.46q.41-.15.06-1.17l-.08-.2c-.08-.28-.46-.29-1.14,0l-.06-.21,1-.37-.06-.21-.28-.13L72,106.87l-.55-1.64c-.33-1,.58-2.11,2.75-3.34l.28.13c-.06-.18.84-.67,2.69-1.47l.21-.07.26.13v-.7l-.41-.53c.37-.27.43-.75.2-1.46l-.14-.41L77,97.38l.27-.56-.07-.21-.81.31-3.77,1.64-.21.07-.06-.2L73,98.2l-.13-.41Z"/></g></g></svg>
