<svg xmlns="http://www.w3.org/2000/svg" viewBox="0 0 19.356 10.466">
  <g id="airplane-taking-off" transform="translate(-0.526 -105.498)">
    <path id="Pfad_7" data-name="Pfad 7" class="cls-1" d="M4.567,264.405a.362.362,0,0,0-.3-.418l-3.321-.555a.363.363,0,0,0-.339.589L2.2,265.943a.362.362,0,0,0,.51.049A15.11,15.11,0,0,0,4.567,264.405Z" transform="translate(0 -150.599)"/>
    <path id="Pfad_8" data-name="Pfad 8" class="cls-1" d="M70.723,105.646c-.689-.389-2.209.045-3.29.653l-3.518,1.977-8.261-1.737a.363.363,0,0,0-.361.578l3.534,4.528-5.07,3.663a.363.363,0,0,0,.213.657.4.4,0,0,0,.077-.008.358.358,0,0,0,.077.008h3.69a.367.367,0,0,0,.2-.062l11.658-7.828c.911-.612,1.443-1.293,1.422-1.823A.709.709,0,0,0,70.723,105.646Z" transform="translate(-51.215)"/>
  </g>
</svg>
